Basic R : a gentle introduction
…
# R challenge

Transform `mtcars` into a tibble and inspect

```r
str(mtcars)
```

```r
library(tibble)
as_tibble(mtcars)
```

```
## # A tibble: 32 x 11
##      mpg   cyl  disp    hp  drat    wt  qsec    vs    am  gear  carb
##    <dbl> <dbl> <dbl> <dbl> <dbl> <dbl> <dbl> <dbl> <dbl> <dbl> <dbl>
##  1  21       6  160    110  3.9   2.62  16.5     0     1     4     4
##  2  21       6  160    110  3.9   2.88  17.0     0     1     4     4
##  3  22.8     4  108     93  3.85  2.32  18.6     1     1     4     1
##  4  21.4     6  258    110  3.08  3.22  19.4     1     0     3     1
##  5  18.7     8  360    175  3.15  3.44  17.0     0     0     3     2
##  6  18.1     6  225    105  2.76  3.46  20.2     1     0     3     1
##  7  14.3     8  360    245  3.21  3.57  15.8     0     0     3     4
##  8  24.4     4  147.    62  3.69  3.19  20       1     0     4     2
##  9  22.8     4  141.    95  3.92  3.15  22.9     1     0     4     2
## 10  19.2     6  168.   123  3.92  3.44  18.3     1     0     4     4
## # ... with 22 more rows
```
…
--

Here you go:

- inspect the `diamonds` data set

- filter observations with `cut` equal to `Ideal`

```r
filter(diamonds, cut == "Ideal")
```

```
## # A tibble: 21,551 x 10
##    carat cut   color clarity depth table price     x     y     z
##    <dbl> <ord> <ord> <ord>   <dbl> <dbl> <int> <dbl> <dbl> <dbl>
##  1  0.23 Ideal E     SI2      61.5    55   326  3.95  3.98  2.43
##  2  0.23 Ideal J     VS1      62.8    56   340  3.93  3.9   2.46
##  3  0.31 Ideal J     SI2      62.2    54   344  4.35  4.37  2.71
##  4  0.3  Ideal I     SI2      62      54   348  4.31  4.34  2.68
##  5  0.33 Ideal I     SI2      61.8    55   403  4.49  4.51  2.78
##  6  0.33 Ideal I     SI2      61.2    56   403  4.49  4.5   2.75
##  7  0.33 Ideal J     SI1      61.1    56   403  4.49  4.55  2.76
##  8  0.23 Ideal G     VS1      61.9    54   404  3.93  3.95  2.44
##  9  0.32 Ideal I     SI1      60.9    55   404  4.45  4.48  2.72
## 10  0.3  Ideal I     SI2      61      59   405  4.3   4.33  2.63
## # ... with 21,541 more rows
```
…
--

Here you go:

- inspect the `diamonds` data set

- create a new variable `price_per_carat`

```r
mutate(diamonds, price_per_carat = price/carat)
```

```
## # A tibble: 53,940 x 11
##    carat cut   color clarity depth table price     x     y     z
##    <dbl> <ord> <ord> <ord>   <dbl> <dbl> <int> <dbl> <dbl> <dbl>
##  1 0.23  Ideal E     SI2      61.5    55   326  3.95  3.98  2.43
##  2 0.21  Prem~ E     SI1      59.8    61   326  3.89  3.84  2.31
##  3 0.23  Good  E     VS1      56.9    65   327  4.05  4.07  2.31
##  4 0.290 Prem~ I     VS2      62.4    58   334  4.2   4.23  2.63
##  5 0.31  Good  J     SI2      63.3    58   335  4.34  4.35  2.75
##  6 0.24  Very~ J     VVS2     62.8    57   336  3.94  3.96  2.48
##  7 0.24  Very~ I     VVS1     62.3    57   336  3.95  3.98  2.47
##  8 0.26  Very~ H     SI1      61.9    55   337  4.07  4.11  2.53
##  9 0.22  Fair  E     VS2      65.1    61   337  3.87  3.78  2.49
## 10 0.23  Very~ H     VS1      59.4    61   338  4     4.05  2.39
## # ... with 53,930 more rows, and 1 more variable: price_per_carat <dbl>
```
…
# Multistep operations

Use the `%>%` for multistep operations. 

Passes result on left into first argument of function on right.

Here you go:

```r
diamonds %>% mutate(price_per_carat = price/carat) %>% 
  filter(price_per_carat > 1500) 
```

```
## # A tibble: 52,821 x 11
##    carat cut   color clarity depth table price     x     y     z
##    <dbl> <ord> <ord> <ord>   <dbl> <dbl> <int> <dbl> <dbl> <dbl>
##  1  0.21 Prem~ E     SI1      59.8    61   326  3.89  3.84  2.31
##  2  0.22 Fair  E     VS2      65.1    61   337  3.87  3.78  2.49
##  3  0.22 Prem~ F     SI1      60.4    61   342  3.88  3.84  2.33
##  4  0.2  Prem~ E     SI2      60.2    62   345  3.79  3.75  2.27
##  5  0.23 Very~ E     VS2      63.8    55   352  3.85  3.92  2.48
##  6  0.23 Very~ H     VS1      61      57   353  3.94  3.96  2.41
##  7  0.23 Very~ G     VVS2     60.4    58   354  3.97  4.01  2.41
##  8  0.23 Very~ D     VS2      60.5    61   357  3.96  3.97  2.4 
##  9  0.23 Very~ F     VS1      60.9    57   357  3.96  3.99  2.42
## 10  0.23 Very~ F     VS1      60      57   402  4     4.03  2.41
## # ... with 52,811 more rows, and 1 more variable: price_per_carat <dbl>
```
…
